ass3/I2Ccommunication/i2c.vcd
$date
	Tue May  7 20:51:21 2024
$end
$version
	Icarus Verilog
$end
$timescale
	1s
$end
$scope module i2c_test $end
$var wire 1 ! sda_line $end
$var wire 1 " m_sda $end
$var wire 1 # m_scl $end
$var reg 1 $ clk $end
$var reg 1 % rst $end
$var reg 3 & slave_addr [2:0] $end
$var reg 5 ' slave_data [4:0] $end
$var reg 1 ( slave_scl $end
$var reg 1 ) slave_sda $end
$scope module i2c_interface $end
$var wire 1 $ clk $end
$var wire 1 ( in_scl $end
$var wire 1 ! in_sda $end
$var wire 1 # out_scl $end
$var wire 1 % rst $end
$var wire 1 * scl_ctrl $end
$var wire 1 + sda_ctrl $end
$var wire 3 , slave_addr [2:0] $end
$var wire 5 - slave_data [4:0] $end
$var wire 1 . shouldDivideFrequency $end
$var wire 1 / scl_clk $end
$var wire 1 0 isRequestingData $end
$var wire 1 1 io_clk $end
$var reg 1 2 addr_ack $end
$var reg 3 3 dataState [2:0] $end
$var reg 1 4 getACKbit $end
$var reg 8 5 i2c_packet [7:0] $end
$var reg 1 6 isBusClaimed $end
$var reg 1 7 isDataTranfered $end
$var reg 1 " out_sda $end
$var reg 1 8 pullClkLow $end
$var reg 1 9 read_ack $end
$var reg 4 : scl_freq [3:0] $end
$scope module i2c_clkseq $end
$var wire 1 $ clk $end
$var wire 1 ( in_scl $end
$var wire 1 ! in_sda $end
$var wire 1 % rst $end
$var reg 1 . isEndSequence $end
$var reg 3 ; state [2:0] $end
$scope begin END_SEQ_DET $end
$upscope $end
$upscope $end
$scope module i2c_stseq $end
$var wire 1 $ clk $end
$var wire 1 ( in_scl $end
$var wire 1 ! in_sda $end
$var wire 1 % rst $end
$var reg 1 0 isBeginSequence $end
$var reg 3 < state [2:0] $end
$scope begin START_SEQ_DET $end
$upscope $end
$upscope $end
$scope module scl_clk0 $end
$var wire 1 $ clk $end
$var wire 1 6 enable $end
$var wire 4 = fdiv [3:0] $end
$var wire 1 % rst $end
$var wire 1 / scl_clk $end
$var wire 1 1 scl_double $end
$var wire 17 > clks [16:0] $end
$var reg 16 ? fdiv_clk [15:0] $end
$var reg 1 @ sampled_enable $end
$scope begin SCL_CLK $end
$upscope $end
$upscope $end
$scope begin I2C_BUS_IDLE $end
$upscope $end
$scope begin I2C_MAIN_BLK $end
$upscope $end
$upscope $end
$scope module i2c_slave0 $end
$var wire 1 $ clk $end
$var wire 1 # in_scl $end
$var wire 1 " in_sda $end
$var wire 1 % rst $end
$var reg 4 A data_mode [3:0] $end
$var reg 1 B isListening $end
$var reg 1 C out_sda $end
$var reg 5 D read_data [4:0] $end
$var reg 5 E received_data [4:0] $end
$var reg 3 F received_slave_addr [2:0] $end
$var reg 3 G receiver_addr [2:0] $end
$var reg 1 H sampled_scl $end
$var reg 1 I sampled_sda $end
$var reg 1 J sendingACKbit $end
$upscope $end
$scope module i2c_slave1 $end
$var wire 1 $ clk $end
$var wire 1 # in_scl $end
$var wire 1 " in_sda $end
$var wire 1 % rst $end
$var reg 4 K data_mode [3:0] $end
$var reg 1 L isListening $end
$var reg 1 M out_sda $end
$var reg 5 N read_data [4:0] $end
$var reg 5 O received_data [4:0] $end
$var reg 3 P received_slave_addr [2:0] $end
$var reg 3 Q receiver_addr [2:0] $end
$var reg 1 R sampled_scl $end
$var reg 1 S sampled_sda $end
$var reg 1 T sendingACKbit $end
$upscope $end
$scope module i2c_slave2 $end
$var wire 1 $ clk $end
$var wire 1 # in_scl $end
$var wire 1 " in_sda $end
$var wire 1 % rst $end
$var reg 4 U data_mode [3:0] $end
$var reg 1 V isListening $end
$var reg 1 W out_sda $end
$var reg 5 X read_data [4:0] $end
$var reg 5 Y received_data [4:0] $end
$var reg 3 Z received_slave_addr [2:0] $end
$var reg 3 [ receiver_addr [2:0] $end
$var reg 1 \ sampled_scl $end
$var reg 1 ] sampled_sda $end
$var reg 1 ^ sendingACKbit $end
$upscope $end
$scope module i2c_slave3 $end
$var wire 1 $ clk $end
$var wire 1 # in_scl $end
$var wire 1 " in_sda $end
$var wire 1 % rst $end
$var reg 4 _ data_mode [3:0] $end
$var reg 1 ` isListening $end
$var reg 1 a out_sda $end
$var reg 5 b read_data [4:0] $end
$var reg 5 c received_data [4:0] $end
$var reg 3 d received_slave_addr [2:0] $end
$var reg 3 e receiver_addr [2:0] $end
$var reg 1 f sampled_scl $end
$var reg 1 g sampled_sda $end
$var reg 1 h sendingACKbit $end
$upscope $end
$scope module i2c_slave4 $end
$var wire 1 $ clk $end
$var wire 1 # in_scl $end
$var wire 1 " in_sda $end
$var wire 1 % rst $end
$var reg 4 i data_mode [3:0] $end
$var reg 1 j isListening $end
$var reg 1 k out_sda $end
$var reg 5 l read_data [4:0] $end
$var reg 5 m received_data [4:0] $end
$var reg 3 n received_slave_addr [2:0] $end
$var reg 3 o receiver_addr [2:0] $end
$var reg 1 p sampled_scl $end
$var reg 1 q sampled_sda $end
$var reg 1 r sendingACKbit $end
$upscope $end
$scope module i2c_slave5 $end
$var wire 1 $ clk $end
$var wire 1 # in_scl $end
$var wire 1 " in_sda $end
$var wire 1 % rst $end
$var reg 4 s data_mode [3:0] $end
$var reg 1 t isListening $end
$var reg 1 u out_sda $end
$var reg 5 v read_data [4:0] $end
$var reg 5 w received_data [4:0] $end
$var reg 3 x received_slave_addr [2:0] $end
$var reg 3 y receiver_addr [2:0] $end
$var reg 1 z sampled_scl $end
$var reg 1 { sampled_sda $end
$var reg 1 | sendingACKbit $end
$upscope $end
$scope module i2c_slave6 $end
$var wire 1 $ clk $end
$var wire 1 # in_scl $end
$var wire 1 " in_sda $end
$var wire 1 % rst $end
$var reg 4 } data_mode [3:0] $end
$var reg 1 ~ isListening $end
$var reg 1 !" out_sda $end
$var reg 5 "" read_data [4:0] $end
$var reg 5 #" received_data [4:0] $end
$var reg 3 $" received_slave_addr [2:0] $end
$var reg 3 %" receiver_addr [2:0] $end
$var reg 1 &" sampled_scl $end
$var reg 1 '" sampled_sda $end
$var reg 1 (" sendingACKbit $end
$upscope $end
$scope module i2c_slave7 $end
$var wire 1 $ clk $end
$var wire 1 # in_scl $end
$var wire 1 " in_sda $end
$var wire 1 % rst $end
$var reg 4 )" data_mode [3:0] $end
$var reg 1 *" isListening $end
$var reg 1 +" out_sda $end
$var reg 5 ," read_data [4:0] $end
$var reg 5 -" received_data [4:0] $end
$var reg 3 ." received_slave_addr [2:0] $end
$var reg 3 /" receiver_addr [2:0] $end
$var reg 1 0" sampled_scl $end
$var reg 1 1" sampled_sda $end
$var reg 1 2" sendingACKbit $end
$upscope $end
$upscope $end
$enddefinitions $end
#0
$dumpvars
02"
11"
10"
bx /"
b0 ."
bx -"
bx ,"
x+"
0*"
b0 )"
0("
1'"
1&"
bx %"
b0 $"
bx #"
bx ""
x!"
0~
b0 }
0|
1{
1z
bx y
b0 x
bx w
bx v
xu
0t
b0 s
0r
1q
1p
bx o
b0 n
bx m
bx l
xk
0j
b0 i
0h
1g
1f
bx e
b0 d
bx c
bx b
xa
0`
b0 _
0^
1]
1\
bx [
b0 Z
bx Y
bx X
xW
0V
b0 U
0T
1S
1R
bx Q
b0 P
bx O
bx N
xM
0L
b0 K
0J
1I
1H
bx G
b0 F
bx E
bx D
xC
0B
b0 A
0@
b0 ?
b0 >
b0 =
b0 <
b0 ;
b0 :
09
08
07
06
b0 5
04
b0 3
02
01
x0
1/
x.
b10 -
b101 ,
0+
0*
0)
0(
b10 '
b101 &
1%
0$
1#
x"
x!
$end
#1
0!
19
1"
b0 G
b0 E
b0 D
0C
1I
b0 Q
b0 O
b0 N
0M
1S
b0 [
b0 Y
b0 X
0W
1]
b0 e
b0 c
b0 b
0a
1g
b0 o
b0 m
b0 l
0k
1q
b0 y
b0 w
b0 v
0u
1{
b0 %"
b0 #"
b0 ""
0!"
1'"
b0 /"
b0 -"
b0 ,"
0+"
11"
11
b1 >
1$
#2
01
b0 >
0$
0%
1(
#3
0.
00
b1 ?
11
b11 >
1$
#4
01
b10 >
0$
0(
#5
b10 ?
11
b101 >
1$
#6
01
b100 >
0$
1(
#7
b11 ?
11
b111 >
1$
#8
01
b110 >
0$
0(
#9
b100 ?
1!
11
b1001 >
1$
1)
#10
01
b1000 >
0$
1(
#11
b1 ;
b1 <
b101 ?
11
b1011 >
1$
#12
01
b1010 >
0$
0(
#13
b110 ?
11
b1101 >
1$
#14
01
b1100 >
0$
1(
#15
b10 ;
b10 <
b111 ?
11
b1111 >
1$
#16
01
b1110 >
0$
0(
#17
b1000 ?
11
b10001 >
1$
#18
01
b10000 >
0$
1(
#19
b11 ;
b1001 ?
11
b10011 >
1$
#20
01
b10010 >
0$
0(
#21
b1010 ?
11
b10101 >
1$
#22
01
b10100 >
0$
1(
#23
b1011 ?
11
b10111 >
1$
#24
01
b10110 >
0$
0(
#25
b1100 ?
0!
11
b11001 >
1$
0)
#26
01
b11000 >
0$
1(
#27
1.
b0 ;
b11 <
b1101 ?
11
b11011 >
1$
#28
01
b11010 >
0$
0(
#29
b1110 ?
1!
11
b11101 >
1$
1)
#30
01
b11100 >
0$
1(
#31
b1 :
b1 =
b1 ;
0.
10
b0 <
b1111 ?
11
b11111 >
1$
#32
b11110 >
0$
0(
#33
1+
1*
b1000101 5
0"
16
01
b10000 ?
b100001 >
1$
#34
b100000 >
0$
1(
#35
0/
b10 ;
b1 <
00
1@
b0 ?
1*"
01"
1~
0'"
1t
0{
1j
0q
1`
0g
1V
0]
1L
0S
1B
0I
b0 >
1$
#36
b1 >
0$
0(
#37
0#
b1 3
1"
18
09
11
b1 ?
b10 >
1$
#38
b11 >
0$
1(
#39
b1 A
b1 F
b1 K
b1 P
b1 U
b1 Z
b1 _
b1 d
b1 i
b1 n
b1 s
b1 x
b1 }
b1 $"
b1 )"
b1 ."
1#
1/
b11 ;
b10 <
01
b10 ?
00"
11"
0&"
1'"
0z
1{
0p
1q
0f
1g
0\
1]
0R
1S
0H
1I
b100 >
1$
#40
b101 >
0$
0(
#41
11
b11 ?
1H
1R
1\
1f
1p
1z
1&"
10"
b110 >
1$
#42
b111 >
0$
1(
#43
0#
0/
01
b100 ?
b1000 >
1$
#44
b1001 >
0$
0(
#45
b10 3
0"
11
b101 ?
0H
0R
0\
0f
0p
0z
0&"
00"
0!
b1010 >
1$
0)
#46
b1011 >
0$
1(
#47
b10 )"
b10 ."
b10 }
b10 $"
b10 s
b10 x
b10 i
b10 n
b10 _
b10 d
b10 U
b10 Z
b10 K
b10 P
b10 A
b10 F
1#
1/
1.
b0 ;
b11 <
01
b110 ?
01"
0'"
0{
0q
0g
0]
0S
0I
b1100 >
1$
#48
b1101 >
0$
0(
#49
11
b111 ?
1H
1R
1\
1f
1p
1z
1&"
10"
b1110 >
1$
#50
b1111 >
0$
1(
#51
0#
0/
0.
b0 <
01
b1000 ?
b10000 >
1$
#52
b10001 >
0$
0(
#53
b11 3
1"
11
b1001 ?
0H
0R
0\
0f
0p
0z
0&"
00"
b10010 >
1$
#54
b10011 >
0$
1(
#55
b11 A
b101 F
b11 K
b101 P
b11 U
b101 Z
b11 _
b101 d
b11 i
b101 n
b11 s
b101 x
b11 }
b101 $"
b11 )"
b101 ."
1#
1/
01
b1010 ?
11"
1'"
1{
1q
1g
1]
1S
1I
b10100 >
1$
#56
b10101 >
0$
0(
#57
11
b1011 ?
1H
1R
1\
1f
1p
1z
1&"
10"
b10110 >
1$
#58
b10111 >
0$
1(
#59
0#
0/
01
b1100 ?
b11000 >
1$
#60
b11001 >
0$
0(
#61
0"
1!
0+
14
11
b1101 ?
b101 G
0H
b101 Q
0R
b101 [
0\
b101 e
0f
b101 o
0p
b101 y
1|
1u
0z
b101 %"
0&"
b101 /"
00"
b11010 >
1$
#62
b11011 >
0$
1(
#63
b100 )"
b10 ."
b100 }
b10 $"
b100 s
b10 x
b100 i
b10 n
b100 _
b10 d
b100 U
b10 Z
b100 K
b10 P
b100 A
b10 F
1#
1/
b1 ;
b1 <
01
b1110 ?
01"
0'"
0{
0q
0g
0]
0S
0I
b11100 >
1$
#64
b11101 >
0$
0(
#65
19
12
11
b1111 ?
1H
1R
1\
1f
1p
1z
1&"
10"
b11110 >
1$
#66
b11111 >
0$
1(
#67
0#
0/
b10 ;
b10 <
01
b10000 ?
b100000 >
1$
#68
b100001 >
0$
0(
#69
b100 3
0!
1+
04
09
11
b10001 ?
b101 A
0H
b101 K
0R
b101 U
0\
b101 _
0f
b101 i
0p
b101 s
0|
0u
0z
b101 }
0&"
b101 )"
00"
b100010 >
1$
#70
b100011 >
0$
1(
#71
b110 A
b110 K
b110 U
b110 _
b110 i
b110 s
b110 }
b110 )"
1#
1/
b0 ;
b11 <
01
b10010 ?
b100100 >
1$
#72
b100101 >
0$
0(
#73
11
b10011 ?
1H
1R
1\
1f
1p
1z
1&"
10"
b100110 >
1$
#74
b100111 >
0$
1(
#75
0#
0/
b0 <
01
b10100 ?
b101000 >
1$
#76
b101001 >
0$
0(
#77
b101 3
11
b10101 ?
0H
0R
0\
0f
0p
0z
0&"
00"
b101010 >
1$
#78
b101011 >
0$
1(
#79
b111 )"
b111 }
b111 s
b111 i
b111 _
b111 U
b111 K
b111 A
1#
1/
01
b10110 ?
b101100 >
1$
#80
b101101 >
0$
0(
#81
11
b10111 ?
1H
1R
1\
1f
1p
1z
1&"
10"
b101110 >
1$
#82
b101111 >
0$
1(
#83
0#
0/
01
b11000 ?
b110000 >
1$
#84
b110001 >
0$
0(
#85
b110 3
11
b11001 ?
0H
0R
0\
0f
0p
0z
0&"
00"
b110010 >
1$
#86
b110011 >
0$
1(
#87
b1000 A
b1000 K
b1000 U
b1000 _
b1000 i
b1000 s
b1000 }
b1000 )"
1#
1/
01
b11010 ?
b110100 >
1$
#88
b110101 >
0$
0(
#89
11
b11011 ?
1H
1R
1\
1f
1p
1z
1&"
10"
b110110 >
1$
#90
b110111 >
0$
1(
#91
0#
0/
01
b11100 ?
b111000 >
1$
#92
b111001 >
0$
0(
#93
b111 3
1"
11
b11101 ?
0H
0R
0\
0f
0p
0z
0&"
00"
b111010 >
1$
#94
b111011 >
0$
1(
#95
b1001 )"
b1 ,"
b1001 }
b1 ""
b1001 s
b1 v
b1001 i
b1 l
b1001 _
b1 b
b1001 U
b1 X
b1001 K
b1 N
b1001 A
b1 D
1#
1/
01
b11110 ?
11"
1'"
1{
1q
1g
1]
1S
1I
b111100 >
1$
#96
b111101 >
0$
0(
#97
11
b11111 ?
1H
1R
1\
1f
1p
1z
1&"
10"
b111110 >
1$
#98
b111111 >
0$
1(
#99
0#
0/
01
b100000 ?
b1000000 >
1$
#100
b1000001 >
0$
0(
#101
b0 3
0"
11
b100001 ?
0H
0R
0\
0f
0p
0z
0&"
00"
b1000010 >
1$
#102
b1000011 >
0$
1(
#103
b1010 A
b10 D
b1010 K
b10 N
b1010 U
b10 X
b1010 _
b10 b
b1010 i
b10 l
b1010 s
b10 v
b1010 }
b10 ""
b1010 )"
b10 ,"
1#
1/
01
b100010 ?
01"
0'"
0{
0q
0g
0]
0S
0I
b1000100 >
1$
#104
b1000101 >
0$
0(
#105
11
b100011 ?
1H
1R
1\
1f
1p
1z
1&"
10"
b1000110 >
1$
#106
b1000111 >
0$
1(
#107
0#
0/
01
b100100 ?
b1001000 >
1$
#108
b1001001 >
0$
0(
#109
17
1"
1!
0+
14
11
b100101 ?
0H
0R
0\
0f
0p
1|
1u
0z
0&"
00"
b1001010 >
1$
#110
b1001011 >
0$
1(
#111
b1011 )"
b1011 }
b1011 s
b1011 i
b1011 _
b1011 U
b1011 K
b1011 A
1#
1/
b1 ;
b1 <
01
b100110 ?
11"
1'"
1{
1q
1g
1]
1S
1I
b1001100 >
1$
#112
b1001101 >
0$
0(
#113
19
11
b100111 ?
1H
1R
1\
1f
1p
1z
1&"
10"
b1001110 >
1$
#114
b1001111 >
0$
1(
#115
0#
0/
b10 ;
b10 <
01
b101000 ?
b1010000 >
1$
#116
b1010001 >
0$
0(
#117
0"
06
0!
1+
04
09
11
b101001 ?
0H
0R
0\
0f
0p
0|
0u
0z
0&"
00"
b1010010 >
1$
#118
b1010011 >
0$
1(
#119
b1100 A
b1100 K
b1100 U
b1100 _
b1100 i
b1100 s
b1100 }
b1100 )"
1#
1/
b0 ;
b11 <
0@
01
b101010 ?
01"
0'"
0{
0q
0g
0]
0S
0I
b1010101 >
1$
#120
b1010100 >
0$
0(
#121
0+
0*
08
1"
11
b101011 ?
1H
1R
1\
1f
1p
1z
1&"
10"
b1010111 >
1$
#122
b1010110 >
0$
1(
#123
b0 <
01
b101100 ?
b0 ,"
b0 )"
b0 ."
0*"
11"
b0 ""
b0 }
b0 $"
0~
1'"
b10 w
b0 v
b0 s
b0 x
0t
1{
b0 l
b0 i
b0 n
0j
1q
b0 b
b0 _
b0 d
0`
1g
b0 X
b0 U
b0 Z
0V
1]
b0 N
b0 K
b0 P
0L
1S
b0 D
b0 A
b0 F
0B
1I
b1011001 >
1$
#124
b1011000 >
0$
0(
#125
11
b101101 ?
b1011011 >
1$
#126
b1011010 >
0$
1(
#127
01
b101110 ?
b1011101 >
1$
#128
b1011100 >
0$
0(
#129
11
b101111 ?
1!
b1011111 >
1$
1)
b11 '
b11 -
b0 &
b0 ,
#130
b1011110 >
0$
1(
#131
b1 ;
b1 <
01
b110000 ?
b1100001 >
1$
#132
b1100000 >
0$
0(
#133
11
b110001 ?
b1100011 >
1$
#134
b1100010 >
0$
1(
#135
b10 ;
b10 <
01
b110010 ?
b1100101 >
1$
#136
b1100100 >
0$
0(
#137
11
b110011 ?
b1100111 >
1$
#138
b1100110 >
0$
1(
#139
b11 ;
01
b110100 ?
b1101001 >
1$
#140
b1101000 >
0$
0(
#141
11
b110101 ?
0!
b1101011 >
1$
0)
#142
b1101010 >
0$
1(
#143
1.
b0 ;
b11 <
01
b110110 ?
b1101101 >
1$
#144
b1101100 >
0$
0(
#145
11
b110111 ?
1!
b1101111 >
1$
1)
#146
b1101110 >
0$
1(
#147
b10 :
b10 =
b1 ;
0.
10
b0 <
01
b111000 ?
b1110001 >
1$
#148
b1110000 >
0$
0(
#149
1+
1*
b11000000 5
07
19
02
0"
16
b111001 ?
b1110011 >
1$
#150
b1110010 >
0$
1(
#151
0/
b10 ;
b1 <
00
1@
b0 ?
1*"
01"
1~
0'"
1t
0{
1j
0q
1`
0g
1V
0]
1L
0S
1B
0I
b0 >
1$
#152
b1 >
0$
0(
#153
b1 ?
0!
b10 >
1$
0)
#154
b11 >
0$
1(
#155
0#
b1 3
18
09
b0 ;
b0 <
11
b10 ?
b100 >
1$
#156
b101 >
0$
0(
#157
b11 ?
0H
0R
0\
0f
0p
0z
0&"
00"
1!
b110 >
1$
1)
#158
b111 >
0$
1(
#159
b1 )"
b1 }
b1 s
b1 i
b1 _
b1 U
b1 K
b1 A
1#
1/
b1 ;
b1 <
01
b100 ?
b1000 >
1$
#160
b1001 >
0$
0(
#161
b101 ?
1H
1R
1\
1f
1p
1z
1&"
10"
0!
b1010 >
1$
0)
#162
b1011 >
0$
1(
#163
b0 ;
b0 <
11
b110 ?
b1100 >
1$
#164
b1101 >
0$
0(
#165
b111 ?
b1110 >
1$
#166
b1111 >
0$
1(
#167
0#
0/
01
b1000 ?
b10000 >
1$
#168
b10001 >
0$
0(
#169
b1001 ?
0H
0R
0\
0f
0p
0z
0&"
00"
b10010 >
1$
#170
b10011 >
0$
1(
#171
b10 3
11
b1010 ?
b10100 >
1$
#172
b10101 >
0$
0(
#173
b1011 ?
b10110 >
1$
#174
b10111 >
0$
1(
#175
b10 A
b10 K
b10 U
b10 _
b10 i
b10 s
b10 }
b10 )"
1#
1/
01
b1100 ?
b11000 >
1$
#176
b11001 >
0$
0(
#177
b1101 ?
1H
1R
1\
1f
1p
1z
1&"
10"
b11010 >
1$
#178
b11011 >
0$
1(
#179
11
b1110 ?
b11100 >
1$
#180
b11101 >
0$
0(
#181
b1111 ?
b11110 >
1$
#182
b11111 >
0$
1(
#183
0#
0/
01
b10000 ?
b100000 >
1$
#184
b100001 >
0$
0(
#185
b10001 ?
0H
0R
0\
0f
0p
0z
0&"
00"
b100010 >
1$
#186
b100011 >
0$
1(
#187
b11 3
11
b10010 ?
b100100 >
1$
#188
b100101 >
0$
0(
#189
b10011 ?
b100110 >
1$
#190
b100111 >
0$
1(
#191
b11 )"
b11 }
b11 s
b11 i
b11 _
b11 U
b11 K
b11 A
1#
1/
01
b10100 ?
b101000 >
1$
#192
b101001 >
0$
0(
#193
b10101 ?
1H
1R
1\
1f
1p
1z
1&"
10"
b101010 >
1$
#194
b101011 >
0$
1(
#195
11
b10110 ?
b101100 >
1$
#196
b101101 >
0$
0(
#197
b10111 ?
b101110 >
1$
#198
b101111 >
0$
1(
#199
0#
0/
01
b11000 ?
b110000 >
1$
#200
b110001 >
0$
0(
#201
1!
b11001 ?
b0 G
1J
1C
0H
b0 Q
0R
b0 [
0\
b0 e
0f
b0 o
0p
b0 y
0z
b0 %"
0&"
b0 /"
00"
b110010 >
1$
#202
b110011 >
0$
1(
#203
0+
14
b1 ;
b1 <
11
b11010 ?
b110100 >
1$
#204
b110101 >
0$
0(
#205
b11011 ?
b110110 >
1$
#206
b110111 >
0$
1(
#207
b100 A
b100 K
b100 U
b100 _
b100 i
b100 s
b100 }
b100 )"
1#
1/
b10 ;
b10 <
01
b11100 ?
b111000 >
1$
#208
b111001 >
0$
0(
#209
b11101 ?
1H
1R
1\
1f
1p
1z
1&"
10"
b111010 >
1$
#210
b111011 >
0$
1(
#211
19
12
b11 ;
11
b11110 ?
b111100 >
1$
#212
b111101 >
0$
0(
#213
b11111 ?
b111110 >
1$
#214
b111111 >
0$
1(
#215
0#
0/
01
b100000 ?
b1000000 >
1$
#216
b1000001 >
0$
0(
#217
0!
b100001 ?
b101 A
0J
0C
0H
b101 K
0R
b101 U
0\
b101 _
0f
b101 i
0p
b101 s
0z
b101 }
0&"
b101 )"
00"
b1000010 >
1$
#218
b1000011 >
0$
1(
#219
b100 3
1+
04
09
1.
b0 ;
b11 <
11
b100010 ?
b1000100 >
1$
#220
b1000101 >
0$
0(
#221
b100011 ?
b1000110 >
1$
#222
b1000111 >
0$
1(
#223
b110 )"
b110 }
b110 s
b110 i
b110 _
b110 U
b110 K
b110 A
1#
1/
0.
b0 <
01
b100100 ?
b1001000 >
1$
#224
b1001001 >
0$
0(
#225
b100101 ?
1H
1R
1\
1f
1p
1z
1&"
10"
b1001010 >
1$
#226
b1001011 >
0$
1(
#227
11
b100110 ?
b1001100 >
1$
#228
b1001101 >
0$
0(
#229
b100111 ?
b1001110 >
1$
#230
b1001111 >
0$
1(
#231
0#
0/
01
b101000 ?
b1010000 >
1$
#232
b1010001 >
0$
0(
#233
b101001 ?
0H
0R
0\
0f
0p
0z
0&"
00"
b1010010 >
1$
#234
b1010011 >
0$
1(
#235
b101 3
11
b101010 ?
b1010100 >
1$
#236
b1010101 >
0$
0(
#237
b101011 ?
b1010110 >
1$
#238
b1010111 >
0$
1(
#239
b111 A
b111 K
b111 U
b111 _
b111 i
b111 s
b111 }
b111 )"
1#
1/
01
b101100 ?
b1011000 >
1$
#240
b1011001 >
0$
0(
#241
b101101 ?
1H
1R
1\
1f
1p
1z
1&"
10"
b1011010 >
1$
#242
b1011011 >
0$
1(
#243
11
b101110 ?
b1011100 >
1$
#244
b1011101 >
0$
0(
#245
b101111 ?
b1011110 >
1$
#246
b1011111 >
0$
1(
#247
0#
0/
01
b110000 ?
b1100000 >
1$
#248
b1100001 >
0$
0(
#249
b110001 ?
0H
0R
0\
0f
0p
0z
0&"
00"
b1100010 >
1$
#250
b1100011 >
0$
1(
#251
b110 3
11
b110010 ?
b1100100 >
1$
#252
b1100101 >
0$
0(
#253
b110011 ?
b1100110 >
1$
#254
b1100111 >
0$
1(
#255
b1000 )"
b1000 }
b1000 s
b1000 i
b1000 _
b1000 U
b1000 K
b1000 A
1#
1/
01
b110100 ?
b1101000 >
1$
#256
b1101001 >
0$
0(
#257
b110101 ?
1H
1R
1\
1f
1p
1z
1&"
10"
b1101010 >
1$
#258
b1101011 >
0$
1(
#259
11
b110110 ?
b1101100 >
1$
#260
b1101101 >
0$
0(
#261
b110111 ?
b1101110 >
1$
#262
b1101111 >
0$
1(
#263
0#
0/
01
b111000 ?
b1110000 >
1$
#264
b1110001 >
0$
0(
#265
b111001 ?
0H
0R
0\
0f
0p
0z
0&"
00"
b1110010 >
1$
#266
b1110011 >
0$
1(
#267
b111 3
1"
11
b111010 ?
b1110100 >
1$
#268
b1110101 >
0$
0(
#269
b111011 ?
1I
1S
1]
1g
1q
1{
1'"
11"
b1110110 >
1$
#270
b1110111 >
0$
1(
#271
b1001 A
b1 D
b1001 K
b1 N
b1001 U
b1 X
b1001 _
b1 b
b1001 i
b1 l
b1001 s
b1 v
b1001 }
b1 ""
b1001 )"
b1 ,"
1#
1/
01
b111100 ?
b1111000 >
1$
#272
b1111001 >
0$
0(
#273
b111101 ?
1H
1R
1\
1f
1p
1z
1&"
10"
b1111010 >
1$
#274
b1111011 >
0$
1(
#275
11
b111110 ?
b1111100 >
1$
#276
b1111101 >
0$
0(
#277
b111111 ?
b1111110 >
1$
#278
b1111111 >
0$
1(
#279
0#
0/
01
b1000000 ?
b10000000 >
1$
#280
b10000001 >
0$
0(
#281
b1000001 ?
0H
0R
0\
0f
0p
0z
0&"
00"
b10000010 >
1$
#282
b10000011 >
0$
1(
#283
b0 3
11
b1000010 ?
b10000100 >
1$
#284
b10000101 >
0$
0(
#285
b1000011 ?
b10000110 >
1$
#286
b10000111 >
0$
1(
#287
b1010 )"
b11 ,"
b1010 }
b11 ""
b1010 s
b11 v
b1010 i
b11 l
b1010 _
b11 b
b1010 U
b11 X
b1010 K
b11 N
b1010 A
b11 D
1#
1/
01
b1000100 ?
b10001000 >
1$
#288
b10001001 >
0$
0(
#289
b1000101 ?
1H
1R
1\
1f
1p
1z
1&"
10"
b10001010 >
1$
#290
b10001011 >
0$
1(
#291
11
b1000110 ?
b10001100 >
1$
#292
b10001101 >
0$
0(
#293
b1000111 ?
b10001110 >
1$
#294
b10001111 >
0$
1(
#295
0#
0/
01
b1001000 ?
b10010000 >
1$
#296
b10010001 >
0$
0(
#297
1!
b1001001 ?
1J
1C
0H
0R
0\
0f
0p
0z
0&"
00"
b10010010 >
1$
#298
b10010011 >
0$
1(
#299
17
0"
0+
14
b1 ;
b1 <
11
b1001010 ?
b10010100 >
1$
#300
b10010101 >
0$
0(
#301
b1001011 ?
0I
0S
0]
0g
0q
0{
0'"
01"
b10010110 >
1$
#302
b10010111 >
0$
1(
#303
b1011 A
b1011 K
b1011 U
b1011 _
b1011 i
b1011 s
b1011 }
b1011 )"
1#
1/
b10 ;
b10 <
01
b1001100 ?
b10011000 >
1$
#304
b10011001 >
0$
0(
#305
b1001101 ?
1H
1R
1\
1f
1p
1z
1&"
10"
b10011010 >
1$
#306
b10011011 >
0$
1(
#307
19
b11 ;
11
b1001110 ?
b10011100 >
1$
#308
b10011101 >
0$
0(
#309
b1001111 ?
b10011110 >
1$
#310
b10011111 >
0$
1(
#311
0#
0/
01
b1010000 ?
b10100000 >
1$
#312
b10100001 >
0$
0(
#313
0!
b1010001 ?
0J
0C
0H
0R
0\
0f
0p
0z
0&"
00"
b10100010 >
1$
#314
b10100011 >
0$
1(
#315
06
1+
04
09
1.
b0 ;
b11 <
11
b1010010 ?
b10100100 >
1$
#316
b10100101 >
0$
0(
#317
b1100 )"
b1100 }
b1100 s
b1100 i
b1100 _
b1100 U
b1100 K
b1100 A
1#
1/
0@
b1010011 ?
b10100111 >
1$
#318
b10100110 >
0$
1(
#319
0+
0*
08
1"
0.
b0 <
01
b1010100 ?
10"
1&"
1z
1p
1f
1\
1R
1H
b10101001 >
1$
#320
b10101000 >
0$
0(
#321
b1010101 ?
b11 E
b0 D
b0 A
0B
1I
b0 N
b0 K
0L
1S
b0 X
b0 U
0V
1]
b0 b
b0 _
0`
1g
b0 l
b0 i
0j
1q
b0 v
b0 s
0t
1{
b0 ""
b0 }
0~
1'"
b0 ,"
b0 )"
0*"
11"
b10101011 >
1$
#322
b10101010 >
0$
1(
#323
11
b1010110 ?
b10101101 >
1$
#324
b10101100 >
0$
0(
#325
b1010111 ?
b10101111 >
1$
#326
b10101110 >
0$
1(
#327
01
b1011000 ?
b10110001 >
1$
#328
b10110000 >
0$
0(
#329
b1011001 ?
b10110011 >
1$
#330
b10110010 >
0$
1(
#331
11
b1011010 ?
b10110101 >
1$
#332
b10110100 >
0$
0(
#333
b1011011 ?
b10110111 >
1$
#334
b10110110 >
0$
1(
#335
01
b1011100 ?
b10111001 >
1$
#336
b10111000 >
0$
0(
#337
b1011101 ?
b10111011 >
1$
#338
b10111010 >
0$
1(
#339
11
b1011110 ?
b10111101 >
1$
#340
b10111100 >
0$
0(
#341
b1011111 ?
b10111111 >
1$
#342
b10111110 >
0$
1(
#343
01
b1100000 ?
b11000001 >
1$
#344
b11000000 >
0$
0(
#345
b1100001 ?
b11000011 >
1$
#346
b11000010 >
0$
1(
#347
11
b1100010 ?
b11000101 >
1$
#348
b11000100 >
0$
0(
#349
b1100011 ?
b11000111 >
1$
#350
b11000110 >
0$
1(
#351
01
b1100100 ?
b11001001 >
1$
#352
b11001000 >
0$
0(
#353
b1100101 ?
b11001011 >
1$
#354
b11001010 >
0$
1(
#355
11
b1100110 ?
b11001101 >
1$
#356
b11001100 >
0$
0(
#357
b1100111 ?
b11001111 >
1$
#358
b11001110 >
0$
1(
#359
01
b1101000 ?
b11010001 >
1$
#360
b11010000 >
0$
0(
#361
b1101001 ?
1!
b11010011 >
1$
1)
b101 '
b101 -
b10 &
b10 ,
#362
b11010010 >
0$
1(
